{
    "key": "group_5bbfa82502237",
    "title": "[Resources] Post Meta",
    "fields": [
        {
            "key": "field_5bbfa82dbce4e",
            "label": "Resource Type",
            "name": "resource_type",
            "type": "taxonomy",
            "instructions": "",
            "required": 0,
            "conditional_logic": 0,
            "wrapper": {
                "width": "",
                "class": "",
                "id": ""
            },
            "taxonomy": "resource-type",
            "field_type": "select",
            "allow_null": 0,
            "add_term": 0,
            "save_terms": 1,
            "load_terms": 0,
            "return_format": "id",
            "multiple": 0
        },
        {
            "key": "field_56c4a9d656711",
            "label": "Show Date",
            "name": "show_date",
            "type": "true_false",
            "instructions": "",
            "required": 0,
            "conditional_logic": 0,
            "wrapper": {
                "width": "",
                "class": "",
                "id": ""
            },
            "message": "",
            "default_value": 0,
            "ui": 1,
            "ui_on_text": "",
            "ui_off_text": ""
        },
        {
            "key": "field_56c4aa6e56714",
            "label": "Use Post Date",
            "name": "use_post_date",
            "type": "true_false",
            "instructions": "Uncheck to specify a date (or range)",
            "required": 0,
            "conditional_logic": [
                [
                    {
                        "field": "field_56c4a9d656711",
                        "operator": "==",
                        "value": "1"
                    }
                ]
            ],
            "wrapper": {
                "width": "",
                "class": "",
                "id": ""
            },
            "message": "",
            "default_value": 1,
            "ui": 1,
            "ui_on_text": "",
            "ui_off_text": ""
        },
        {
            "key": "field_56c4aa0a56712",
            "label": "Start Date",
            "name": "start_date",
            "type": "date_picker",
            "instructions": "",
            "required": 1,
            "conditional_logic": [
                [
                    {
                        "field": "field_56c4aa6e56714",
                        "operator": "!=",
                        "value": "1"
                    },
                    {
                        "field": "field_56c4a9d656711",
                        "operator": "==",
                        "value": "1"
                    }
                ]
            ],
            "wrapper": {
                "width": "",
                "class": "",
                "id": ""
            },
            "display_format": "F j, Y",
            "return_format": "Ymd",
            "first_day": 1
        },
        {
            "key": "field_56c4aa4656713",
            "label": "End Date",
            "name": "end_date",
            "type": "date_picker",
            "instructions": "",
            "required": 0,
            "conditional_logic": [
                [
                    {
                        "field": "field_56c4aa6e56714",
                        "operator": "!=",
                        "value": "1"
                    },
                    {
                        "field": "field_56c4a9d656711",
                        "operator": "==",
                        "value": "1"
                    }
                ]
            ],
            "wrapper": {
                "width": "",
                "class": "",
                "id": ""
            },
            "display_format": "F j, Y",
            "return_format": "Ymd",
            "first_day": 1
        },
        {
            "key": "field_56c4b99327fdd",
            "label": "Button Text",
            "name": "button_text",
            "type": "text",
            "instructions": "",
            "required": 0,
            "conditional_logic": 0,
            "wrapper": {
                "width": "",
                "class": "",
                "id": ""
            },
            "default_value": "Download",
            "placeholder": "",
            "prepend": "",
            "append": "",
            "maxlength": ""
        },
        {
            "key": "field_5d790b83566f1",
            "label": "Featured",
            "name": "featured",
            "type": "taxonomy",
            "instructions": "",
            "required": 0,
            "conditional_logic": 0,
            "wrapper": {
                "width": "",
                "class": "",
                "id": ""
            },
            "taxonomy": "resource-featured",
            "field_type": "checkbox",
            "add_term": 0,
            "save_terms": 1,
            "load_terms": 1,
            "return_format": "id",
            "multiple": 0,
            "allow_null": 0
        }
    ],
    "location": [
        [
            {
                "param": "post_type",
                "operator": "==",
                "value": "resource-post"
            }
        ]
    ],
    "menu_order": 0,
    "position": "side",
    "style": "default",
    "label_placement": "top",
    "instruction_placement": "label",
    "hide_on_screen": "",
    "active": 1,
    "description": "",
    "modified": 1570201885
}